{
    "title": "大屏专区",
    "titleResId": "wallpaper_group_molten_glass_title",
    "subtitle":"Danny Ivan",
    "subtitleResId":"wallpaper_group_molten_glass_subtitle",
    "cardType": 1,
    "count": 7,
    "slideCount": 7,
    "randomOrder": false,
    "wallpapers": [{
    "thumbPath": "./wallpaper_05.jpg",
    "originPath": "./wallpaper_05.mp4",
    "type": "sensor",
    "smallScreenFrameCount": 0,
    "videoFrameCount": 331 ,
    "frameRate": 120
    } , {
    "thumbPath": "./wallpaper_04.jpg",
    "originPath": "./wallpaper_04.mp4",
    "type": "sensor",
    "smallScreenFrameCount": 0,
    "videoFrameCount": 331 ,
    "frameRate": 120
    } , {
    "thumbPath": "./wallpaper_03.jpg",
    "originPath": "./wallpaper_03.mp4",
    "type": "sensor",
    "smallScreenFrameCount": 0,
    "videoFrameCount": 361 ,
    "frameRate": 120
    } , {
    "thumbPath": "./wallpaper_02.jpg",
    "originPath": "./wallpaper_02.mp4",
    "type": "sensor",
    "smallScreenFrameCount": 0,
    "videoFrameCount": 361 ,
    "frameRate": 120
    }, {
    "thumbPath": "./wallpaper_01.jpg",
    "originPath": "./wallpaper_01.mp4",
    "type": "sensor",
    "smallScreenFrameCount": 0,
    "videoFrameCount": 361 ,
    "frameRate": 120
    }, {
    "thumbPath": "./sensor_wallpaper_B.jpg",
    "originPath": "./sensor_wallpaper_B.mp4",
    "type": "sensor",
    "smallScreenFrameCount": 0,
    "videoFrameCount": 181 ,
    "frameRate": 60
    } , {
    "thumbPath": "./sensor_wallpaper_A.jpg",
    "originPath": "./sensor_wallpaper_A.mp4",
    "type": "sensor",
    "smallScreenFrameCount": 0,
    "videoFrameCount": 360,
    "frameRate": 120
    }]
}
